[gd_scene load_steps=2 format=3 uid="uid://4t08o22wxocl"]

[ext_resource type="Script" path="res://scripts/food_spawner.gd" id="1_3auf3"]

[node name="FoodSpawner" type="Node2D"]
script = ExtResource("1_3auf3")

[node name="Timer" type="Timer" parent="."]

[node name="Foods" type="Node2D" parent="."]
