[gd_scene load_steps=2 format=3 uid="uid://c86hlmvh0v03h"]

[ext_resource type="Script" path="res://scripts/highscore.gd" id="1_upol8"]

[node name="Highscore" type="GridContainer"]
anchors_preset = 8
anchor_left = 0.5
anchor_top = 0.5
anchor_right = 0.5
anchor_bottom = 0.5
offset_left = -0.5
offset_top = -10.5
offset_right = 0.5
offset_bottom = 10.5
grow_horizontal = 2
grow_vertical = 2
size_flags_horizontal = 3
size_flags_vertical = 4
columns = 2
script = ExtResource("1_upol8")
